%YAML 1.1
%TAG !u! tag:unity3d.com,2011:
--- !u!1 &4266171992293746507
GameObject:
  m_ObjectHideFlags: 0
  m_CorrespondingSourceObject: {fileID: 0}
  m_PrefabInstance: {fileID: 0}
  m_PrefabAsset: {fileID: 0}
  serializedVersion: 6
  m_Component:
  - component: {fileID: 4266171992293746501}
  - component: {fileID: 4266171992293746506}
  - component: {fileID: 4266171992293746500}
  m_Layer: 9
  m_Name: 111BigStone1Obstacle
  m_TagString: Untagged
  m_Icon: {fileID: 0}
  m_NavMeshLayer: 0
  m_StaticEditorFlags: 0
  m_IsActive: 1
--- !u!4 &4266171992293746501
Transform:
  m_ObjectHideFlags: 0
  m_CorrespondingSourceObject: {fileID: 0}
  m_PrefabInstance: {fileID: 0}
  m_PrefabAsset: {fileID: 0}
  m_GameObject: {fileID: 4266171992293746507}
  m_LocalRotation: {x: 0, y: 0, z: 0, w: 1}
  m_LocalPosition: {x: 2, y: 0, z: 0}
  m_LocalScale: {x: 1, y: 1, z: 1}
  m_Children:
  - {fileID: 9101431920615998979}
  m_Father: {fileID: 0}
  m_RootOrder: 0
  m_LocalEulerAnglesHint: {x: 0, y: 0, z: 0}
--- !u!65 &4266171992293746506
BoxCollider:
  m_ObjectHideFlags: 0
  m_CorrespondingSourceObject: {fileID: 0}
  m_PrefabInstance: {fileID: 0}
  m_PrefabAsset: {fileID: 0}
  m_GameObject: {fileID: 4266171992293746507}
  m_Material: {fileID: 0}
  m_IsTrigger: 1
  m_Enabled: 1
  serializedVersion: 2
  m_Size: {x: 0.8, y: 0.8, z: 0.8}
  m_Center: {x: 0.5, y: 0.4, z: 0.5}
--- !u!114 &4266171992293746500
MonoBehaviour:
  m_ObjectHideFlags: 0
  m_CorrespondingSourceObject: {fileID: 0}
  m_PrefabInstance: {fileID: 0}
  m_PrefabAsset: {fileID: 0}
  m_GameObject: {fileID: 4266171992293746507}
  m_Enabled: 1
  m_EditorHideFlags: 0
  m_Script: {fileID: 11500000, guid: 61dac2a28e72b0e478b563a992dfab2c, type: 3}
  m_Name: 
  m_EditorClassIdentifier: 
  _cellPosition:
    _x: 0
    _y: 0
    _z: 0
  _cellsDescriptions:
  - _cellPosition:
      _x: 0
      _y: 0
      _z: 0
    _type: 3
  _damage: 1
  _isKilling: 0
--- !u!1001 &4266171991602392345
PrefabInstance:
  m_ObjectHideFlags: 0
  serializedVersion: 2
  m_Modification:
    m_TransformParent: {fileID: 4266171992293746501}
    m_Modifications:
    - target: {fileID: -4216859302048453862, guid: 1b4b8194cf9f1464a9c2f9f40fe1a7f7,
        type: 3}
      propertyPath: m_LocalPosition.x
      value: 0.5
      objectReference: {fileID: 0}
    - target: {fileID: -4216859302048453862, guid: 1b4b8194cf9f1464a9c2f9f40fe1a7f7,
        type: 3}
      propertyPath: m_LocalPosition.y
      value: 0
      objectReference: {fileID: 0}
    - target: {fileID: -4216859302048453862, guid: 1b4b8194cf9f1464a9c2f9f40fe1a7f7,
        type: 3}
      propertyPath: m_LocalPosition.z
      value: 0.5
      objectReference: {fileID: 0}
    - target: {fileID: -4216859302048453862, guid: 1b4b8194cf9f1464a9c2f9f40fe1a7f7,
        type: 3}
      propertyPath: m_LocalRotation.x
      value: 0.7071068
      objectReference: {fileID: 0}
    - target: {fileID: -4216859302048453862, guid: 1b4b8194cf9f1464a9c2f9f40fe1a7f7,
        type: 3}
      propertyPath: m_LocalRotation.y
      value: -0
      objectReference: {fileID: 0}
    - target: {fileID: -4216859302048453862, guid: 1b4b8194cf9f1464a9c2f9f40fe1a7f7,
        type: 3}
      propertyPath: m_LocalRotation.z
      value: -0
      objectReference: {fileID: 0}
    - target: {fileID: -4216859302048453862, guid: 1b4b8194cf9f1464a9c2f9f40fe1a7f7,
        type: 3}
      propertyPath: m_LocalRotation.w
      value: -0.7071068
      objectReference: {fileID: 0}
    - target: {fileID: -4216859302048453862, guid: 1b4b8194cf9f1464a9c2f9f40fe1a7f7,
        type: 3}
      propertyPath: m_RootOrder
      value: 0
      objectReference: {fileID: 0}
    - target: {fileID: -4216859302048453862, guid: 1b4b8194cf9f1464a9c2f9f40fe1a7f7,
        type: 3}
      propertyPath: m_LocalEulerAnglesHint.x
      value: 270
      objectReference: {fileID: 0}
    - target: {fileID: -4216859302048453862, guid: 1b4b8194cf9f1464a9c2f9f40fe1a7f7,
        type: 3}
      propertyPath: m_LocalEulerAnglesHint.y
      value: 0
      objectReference: {fileID: 0}
    - target: {fileID: -4216859302048453862, guid: 1b4b8194cf9f1464a9c2f9f40fe1a7f7,
        type: 3}
      propertyPath: m_LocalEulerAnglesHint.z
      value: 0
      objectReference: {fileID: 0}
    - target: {fileID: -4216859302048453862, guid: 1b4b8194cf9f1464a9c2f9f40fe1a7f7,
        type: 3}
      propertyPath: m_LocalScale.y
      value: 1
      objectReference: {fileID: 0}
    - target: {fileID: -4216859302048453862, guid: 1b4b8194cf9f1464a9c2f9f40fe1a7f7,
        type: 3}
      propertyPath: m_LocalScale.z
      value: 1
      objectReference: {fileID: 0}
    - target: {fileID: -4216859302048453862, guid: 1b4b8194cf9f1464a9c2f9f40fe1a7f7,
        type: 3}
      propertyPath: m_LocalScale.x
      value: 1
      objectReference: {fileID: 0}
    - target: {fileID: -927199367670048503, guid: 1b4b8194cf9f1464a9c2f9f40fe1a7f7,
        type: 3}
      propertyPath: m_Name
      value: stone3 1.0
      objectReference: {fileID: 0}
    - target: {fileID: -927199367670048503, guid: 1b4b8194cf9f1464a9c2f9f40fe1a7f7,
        type: 3}
      propertyPath: m_Layer
      value: 9
      objectReference: {fileID: 0}
    m_RemovedComponents: []
  m_SourcePrefab: {fileID: 100100000, guid: 1b4b8194cf9f1464a9c2f9f40fe1a7f7, type: 3}
--- !u!4 &9101431920615998979 stripped
Transform:
  m_CorrespondingSourceObject: {fileID: -4216859302048453862, guid: 1b4b8194cf9f1464a9c2f9f40fe1a7f7,
    type: 3}
  m_PrefabInstance: {fileID: 4266171991602392345}
  m_PrefabAsset: {fileID: 0}
