%YAML 1.1
%TAG !u! tag:unity3d.com,2011:
--- !u!1 &8196440295795515235
GameObject:
  m_ObjectHideFlags: 0
  m_CorrespondingSourceObject: {fileID: 0}
  m_PrefabInstance: {fileID: 0}
  m_PrefabAsset: {fileID: 0}
  serializedVersion: 6
  m_Component:
  - component: {fileID: 8196440295795515238}
  - component: {fileID: 8196440295795515237}
  - component: {fileID: 8196440295795515236}
  m_Layer: 9
  m_Name: 321ElkObstacle
  m_TagString: Untagged
  m_Icon: {fileID: 0}
  m_NavMeshLayer: 0
  m_StaticEditorFlags: 0
  m_IsActive: 1
--- !u!4 &8196440295795515238
Transform:
  m_ObjectHideFlags: 0
  m_CorrespondingSourceObject: {fileID: 0}
  m_PrefabInstance: {fileID: 0}
  m_PrefabAsset: {fileID: 0}
  m_GameObject: {fileID: 8196440295795515235}
  m_LocalRotation: {x: 0, y: 0, z: 0, w: 1}
  m_LocalPosition: {x: 0, y: 0, z: 2}
  m_LocalScale: {x: 1, y: 1, z: 1}
  m_Children:
  - {fileID: 3802498009980603779}
  m_Father: {fileID: 0}
  m_RootOrder: 0
  m_LocalEulerAnglesHint: {x: 0, y: 0, z: 0}
--- !u!114 &8196440295795515237
MonoBehaviour:
  m_ObjectHideFlags: 0
  m_CorrespondingSourceObject: {fileID: 0}
  m_PrefabInstance: {fileID: 0}
  m_PrefabAsset: {fileID: 0}
  m_GameObject: {fileID: 8196440295795515235}
  m_Enabled: 1
  m_EditorHideFlags: 0
  m_Script: {fileID: 11500000, guid: 890a7690682c11440b4deb210dbba859, type: 3}
  m_Name: 
  m_EditorClassIdentifier: 
  _cellPosition:
    _x: 0
    _y: 0
    _z: 0
  _cellsDescriptions:
  - _cellPosition:
      _x: 0
      _y: 0
      _z: 0
    _type: 3
  - _cellPosition:
      _x: 1
      _y: 0
      _z: 0
    _type: 3
  - _cellPosition:
      _x: 2
      _y: 0
      _z: 0
    _type: 3
  - _cellPosition:
      _x: 0
      _y: 1
      _z: 0
    _type: 3
  - _cellPosition:
      _x: 1
      _y: 1
      _z: 0
    _type: 3
  - _cellPosition:
      _x: 2
      _y: 1
      _z: 0
    _type: 3
  _damage: 2
--- !u!65 &8196440295795515236
BoxCollider:
  m_ObjectHideFlags: 0
  m_CorrespondingSourceObject: {fileID: 0}
  m_PrefabInstance: {fileID: 0}
  m_PrefabAsset: {fileID: 0}
  m_GameObject: {fileID: 8196440295795515235}
  m_Material: {fileID: 0}
  m_IsTrigger: 1
  m_Enabled: 1
  serializedVersion: 2
  m_Size: {x: 2.8, y: 1.8, z: 0.8}
  m_Center: {x: 1.5, y: 0.9, z: 0.5}
--- !u!1001 &8196440295460546201
PrefabInstance:
  m_ObjectHideFlags: 0
  serializedVersion: 2
  m_Modification:
    m_TransformParent: {fileID: 8196440295795515238}
    m_Modifications:
    - target: {fileID: -9138384822779237652, guid: 3ce3bf0d54787524e9c1ca3e8c08ead8,
        type: 3}
      propertyPath: m_Layer
      value: 9
      objectReference: {fileID: 0}
    - target: {fileID: -8762069337208834758, guid: 3ce3bf0d54787524e9c1ca3e8c08ead8,
        type: 3}
      propertyPath: m_Layer
      value: 9
      objectReference: {fileID: 0}
    - target: {fileID: -8582548851449635245, guid: 3ce3bf0d54787524e9c1ca3e8c08ead8,
        type: 3}
      propertyPath: m_Layer
      value: 9
      objectReference: {fileID: 0}
    - target: {fileID: -7761882360504951986, guid: 3ce3bf0d54787524e9c1ca3e8c08ead8,
        type: 3}
      propertyPath: m_Layer
      value: 9
      objectReference: {fileID: 0}
    - target: {fileID: -7589439046260964156, guid: 3ce3bf0d54787524e9c1ca3e8c08ead8,
        type: 3}
      propertyPath: m_Layer
      value: 9
      objectReference: {fileID: 0}
    - target: {fileID: -7205722320469844628, guid: 3ce3bf0d54787524e9c1ca3e8c08ead8,
        type: 3}
      propertyPath: m_Layer
      value: 9
      objectReference: {fileID: 0}
    - target: {fileID: -5978321925024363075, guid: 3ce3bf0d54787524e9c1ca3e8c08ead8,
        type: 3}
      propertyPath: m_Layer
      value: 9
      objectReference: {fileID: 0}
    - target: {fileID: -5969025523378857748, guid: 3ce3bf0d54787524e9c1ca3e8c08ead8,
        type: 3}
      propertyPath: m_Layer
      value: 9
      objectReference: {fileID: 0}
    - target: {fileID: -5728737498786291373, guid: 3ce3bf0d54787524e9c1ca3e8c08ead8,
        type: 3}
      propertyPath: m_Layer
      value: 9
      objectReference: {fileID: 0}
    - target: {fileID: -5611237414862504401, guid: 3ce3bf0d54787524e9c1ca3e8c08ead8,
        type: 3}
      propertyPath: m_Layer
      value: 9
      objectReference: {fileID: 0}
    - target: {fileID: -4216859302048453862, guid: 3ce3bf0d54787524e9c1ca3e8c08ead8,
        type: 3}
      propertyPath: m_LocalPosition.x
      value: 1.5
      objectReference: {fileID: 0}
    - target: {fileID: -4216859302048453862, guid: 3ce3bf0d54787524e9c1ca3e8c08ead8,
        type: 3}
      propertyPath: m_LocalPosition.y
      value: 0
      objectReference: {fileID: 0}
    - target: {fileID: -4216859302048453862, guid: 3ce3bf0d54787524e9c1ca3e8c08ead8,
        type: 3}
      propertyPath: m_LocalPosition.z
      value: 0.5
      objectReference: {fileID: 0}
    - target: {fileID: -4216859302048453862, guid: 3ce3bf0d54787524e9c1ca3e8c08ead8,
        type: 3}
      propertyPath: m_LocalRotation.x
      value: 0
      objectReference: {fileID: 0}
    - target: {fileID: -4216859302048453862, guid: 3ce3bf0d54787524e9c1ca3e8c08ead8,
        type: 3}
      propertyPath: m_LocalRotation.y
      value: 0.7071068
      objectReference: {fileID: 0}
    - target: {fileID: -4216859302048453862, guid: 3ce3bf0d54787524e9c1ca3e8c08ead8,
        type: 3}
      propertyPath: m_LocalRotation.z
      value: 0
      objectReference: {fileID: 0}
    - target: {fileID: -4216859302048453862, guid: 3ce3bf0d54787524e9c1ca3e8c08ead8,
        type: 3}
      propertyPath: m_LocalRotation.w
      value: 0.7071068
      objectReference: {fileID: 0}
    - target: {fileID: -4216859302048453862, guid: 3ce3bf0d54787524e9c1ca3e8c08ead8,
        type: 3}
      propertyPath: m_RootOrder
      value: 0
      objectReference: {fileID: 0}
    - target: {fileID: -4216859302048453862, guid: 3ce3bf0d54787524e9c1ca3e8c08ead8,
        type: 3}
      propertyPath: m_LocalEulerAnglesHint.x
      value: 0
      objectReference: {fileID: 0}
    - target: {fileID: -4216859302048453862, guid: 3ce3bf0d54787524e9c1ca3e8c08ead8,
        type: 3}
      propertyPath: m_LocalEulerAnglesHint.y
      value: 90
      objectReference: {fileID: 0}
    - target: {fileID: -4216859302048453862, guid: 3ce3bf0d54787524e9c1ca3e8c08ead8,
        type: 3}
      propertyPath: m_LocalEulerAnglesHint.z
      value: 0
      objectReference: {fileID: 0}
    - target: {fileID: -4026625457860390397, guid: 3ce3bf0d54787524e9c1ca3e8c08ead8,
        type: 3}
      propertyPath: m_Layer
      value: 9
      objectReference: {fileID: 0}
    - target: {fileID: -3197271598898860176, guid: 3ce3bf0d54787524e9c1ca3e8c08ead8,
        type: 3}
      propertyPath: m_Layer
      value: 9
      objectReference: {fileID: 0}
    - target: {fileID: -2577452800445616469, guid: 3ce3bf0d54787524e9c1ca3e8c08ead8,
        type: 3}
      propertyPath: m_Layer
      value: 9
      objectReference: {fileID: 0}
    - target: {fileID: -2358208889436384548, guid: 3ce3bf0d54787524e9c1ca3e8c08ead8,
        type: 3}
      propertyPath: m_Layer
      value: 9
      objectReference: {fileID: 0}
    - target: {fileID: -2071858266496598130, guid: 3ce3bf0d54787524e9c1ca3e8c08ead8,
        type: 3}
      propertyPath: m_Layer
      value: 9
      objectReference: {fileID: 0}
    - target: {fileID: -1799135875716893797, guid: 3ce3bf0d54787524e9c1ca3e8c08ead8,
        type: 3}
      propertyPath: m_Layer
      value: 9
      objectReference: {fileID: 0}
    - target: {fileID: -1333901681404533974, guid: 3ce3bf0d54787524e9c1ca3e8c08ead8,
        type: 3}
      propertyPath: m_Layer
      value: 9
      objectReference: {fileID: 0}
    - target: {fileID: -927199367670048503, guid: 3ce3bf0d54787524e9c1ca3e8c08ead8,
        type: 3}
      propertyPath: m_Name
      value: ELK@down.2.0
      objectReference: {fileID: 0}
    - target: {fileID: -927199367670048503, guid: 3ce3bf0d54787524e9c1ca3e8c08ead8,
        type: 3}
      propertyPath: m_Layer
      value: 9
      objectReference: {fileID: 0}
    - target: {fileID: -182630233255024112, guid: 3ce3bf0d54787524e9c1ca3e8c08ead8,
        type: 3}
      propertyPath: m_Layer
      value: 9
      objectReference: {fileID: 0}
    - target: {fileID: -34578492233752196, guid: 3ce3bf0d54787524e9c1ca3e8c08ead8,
        type: 3}
      propertyPath: m_Layer
      value: 9
      objectReference: {fileID: 0}
    - target: {fileID: 669906336995020276, guid: 3ce3bf0d54787524e9c1ca3e8c08ead8,
        type: 3}
      propertyPath: m_Layer
      value: 9
      objectReference: {fileID: 0}
    - target: {fileID: 690740916717911162, guid: 3ce3bf0d54787524e9c1ca3e8c08ead8,
        type: 3}
      propertyPath: m_Layer
      value: 9
      objectReference: {fileID: 0}
    - target: {fileID: 781534415516467897, guid: 3ce3bf0d54787524e9c1ca3e8c08ead8,
        type: 3}
      propertyPath: m_Layer
      value: 9
      objectReference: {fileID: 0}
    - target: {fileID: 1110095595768459914, guid: 3ce3bf0d54787524e9c1ca3e8c08ead8,
        type: 3}
      propertyPath: m_Layer
      value: 9
      objectReference: {fileID: 0}
    - target: {fileID: 1121063750183690423, guid: 3ce3bf0d54787524e9c1ca3e8c08ead8,
        type: 3}
      propertyPath: m_Layer
      value: 9
      objectReference: {fileID: 0}
    - target: {fileID: 1186646181443488566, guid: 3ce3bf0d54787524e9c1ca3e8c08ead8,
        type: 3}
      propertyPath: m_Layer
      value: 9
      objectReference: {fileID: 0}
    - target: {fileID: 1359929804734827331, guid: 3ce3bf0d54787524e9c1ca3e8c08ead8,
        type: 3}
      propertyPath: m_Layer
      value: 9
      objectReference: {fileID: 0}
    - target: {fileID: 1846567480568023554, guid: 3ce3bf0d54787524e9c1ca3e8c08ead8,
        type: 3}
      propertyPath: m_Layer
      value: 9
      objectReference: {fileID: 0}
    - target: {fileID: 2414789103623013714, guid: 3ce3bf0d54787524e9c1ca3e8c08ead8,
        type: 3}
      propertyPath: m_Layer
      value: 9
      objectReference: {fileID: 0}
    - target: {fileID: 3073553906934547326, guid: 3ce3bf0d54787524e9c1ca3e8c08ead8,
        type: 3}
      propertyPath: m_Layer
      value: 9
      objectReference: {fileID: 0}
    - target: {fileID: 3119160026199999354, guid: 3ce3bf0d54787524e9c1ca3e8c08ead8,
        type: 3}
      propertyPath: m_Layer
      value: 9
      objectReference: {fileID: 0}
    - target: {fileID: 3438458931866965614, guid: 3ce3bf0d54787524e9c1ca3e8c08ead8,
        type: 3}
      propertyPath: m_Layer
      value: 9
      objectReference: {fileID: 0}
    - target: {fileID: 3755800993544620374, guid: 3ce3bf0d54787524e9c1ca3e8c08ead8,
        type: 3}
      propertyPath: m_Layer
      value: 9
      objectReference: {fileID: 0}
    - target: {fileID: 3925881749508452247, guid: 3ce3bf0d54787524e9c1ca3e8c08ead8,
        type: 3}
      propertyPath: m_Layer
      value: 9
      objectReference: {fileID: 0}
    - target: {fileID: 4358671671336020621, guid: 3ce3bf0d54787524e9c1ca3e8c08ead8,
        type: 3}
      propertyPath: m_Layer
      value: 9
      objectReference: {fileID: 0}
    - target: {fileID: 4368332183693829925, guid: 3ce3bf0d54787524e9c1ca3e8c08ead8,
        type: 3}
      propertyPath: m_Layer
      value: 9
      objectReference: {fileID: 0}
    - target: {fileID: 4478824649631618080, guid: 3ce3bf0d54787524e9c1ca3e8c08ead8,
        type: 3}
      propertyPath: m_Layer
      value: 9
      objectReference: {fileID: 0}
    - target: {fileID: 4773573113042419516, guid: 3ce3bf0d54787524e9c1ca3e8c08ead8,
        type: 3}
      propertyPath: m_Layer
      value: 9
      objectReference: {fileID: 0}
    - target: {fileID: 5144354302145784420, guid: 3ce3bf0d54787524e9c1ca3e8c08ead8,
        type: 3}
      propertyPath: m_Layer
      value: 9
      objectReference: {fileID: 0}
    - target: {fileID: 5190350113529786958, guid: 3ce3bf0d54787524e9c1ca3e8c08ead8,
        type: 3}
      propertyPath: m_Layer
      value: 9
      objectReference: {fileID: 0}
    - target: {fileID: 6298867413642603481, guid: 3ce3bf0d54787524e9c1ca3e8c08ead8,
        type: 3}
      propertyPath: m_Layer
      value: 9
      objectReference: {fileID: 0}
    - target: {fileID: 7199902334543741925, guid: 3ce3bf0d54787524e9c1ca3e8c08ead8,
        type: 3}
      propertyPath: m_Layer
      value: 9
      objectReference: {fileID: 0}
    - target: {fileID: 7325312262706204517, guid: 3ce3bf0d54787524e9c1ca3e8c08ead8,
        type: 3}
      propertyPath: m_Layer
      value: 9
      objectReference: {fileID: 0}
    - target: {fileID: 7349360630127186939, guid: 3ce3bf0d54787524e9c1ca3e8c08ead8,
        type: 3}
      propertyPath: m_Layer
      value: 9
      objectReference: {fileID: 0}
    - target: {fileID: 7595140752511489557, guid: 3ce3bf0d54787524e9c1ca3e8c08ead8,
        type: 3}
      propertyPath: m_Layer
      value: 9
      objectReference: {fileID: 0}
    - target: {fileID: 8899185061429706034, guid: 3ce3bf0d54787524e9c1ca3e8c08ead8,
        type: 3}
      propertyPath: m_Layer
      value: 9
      objectReference: {fileID: 0}
    m_RemovedComponents: []
  m_SourcePrefab: {fileID: 100100000, guid: 3ce3bf0d54787524e9c1ca3e8c08ead8, type: 3}
--- !u!4 &3802498009980603779 stripped
Transform:
  m_CorrespondingSourceObject: {fileID: -4216859302048453862, guid: 3ce3bf0d54787524e9c1ca3e8c08ead8,
    type: 3}
  m_PrefabInstance: {fileID: 8196440295460546201}
  m_PrefabAsset: {fileID: 0}
